…
From this, it looks like three different ethnicities had changes over
time.

``` r
# Check childs_first_name column for changes in case
read_csv("./data/Popular_Baby_Names.csv") %>%
  janitor::clean_names() %>% 
  group_by(childs_first_name) %>% 
  summarize(
    n = n()
  )
```

    ## # A tibble: 3,021 x 2
    ##    childs_first_name     n
    ##    <chr>             <int>
    ##  1 Aahil                 4
    ##  2 Aaliyah              12
    ##  3 AALIYAH               8
    ##  4 Aarav                 4
    ##  5 AARAV                 4
    ##  6 Aaron                24
    ##  7 AARON                13
    ##  8 Aarya                 3
    ##  9 Aaryan                2
    ## 10 Aayan                 5
    ## # … with 3,011 more rows
…
